<?xml version="1.0" ?><!DOCTYPE svg  PUBLIC '-//W3C//DTD SVG 1.1//EN'  'http://www.w3.org/Graphics/SVG/1.1/DTD/svg11.dtd'><svg id="Layer_1" style="enable-background:new 0 0 78 78;" version="1.1" viewBox="0 0 78 78" xml:space="preserve" xmlns="http://www.w3.org/2000/svg" xmlns:xlink="http://www.w3.org/1999/xlink">
	<g>
		<path fill="transparent" stroke="#000" stroke-width="2px" d="M66,2H12C6.5,2,2,6.5,2,12V66c0,5.5,4.5,10,10,10h26.7l0-26.4h-6.9c-0.9,0-1.6-0.7-1.6-1.6l0-8.5   c0-0.9,0.7-1.6,1.6-1.6h6.9v-8.2c0-9.6,5.8-14.8,14.4-14.8h7c0.9,0,1.6,0.7,1.6,1.6v7.2c0,0.9-0.7,1.6-1.6,1.6l-4.3,0   c-4.6,0-5.5,2.2-5.5,5.4v7.1h10.2c1,0,1.7,0.8,1.6,1.8l-1,8.5c-0.1,0.8-0.8,1.4-1.6,1.4h-9.1l0,26.4H66c5.5,0,10-4.5,10-10V12   C76,6.5,71.5,2,66,2z"/>
	</g>
</svg>